{
	"d": {
		"results": [{
				"__metadata": {
					"id": "http://sms00990.npr.nornick.ru:8010/sap/opu/odata/SAP/ZHCM_PM_0650_SRV/ReportSet('ZHCM_PM_XXXX_REP_CONS')",
					"uri": "http://sms00990.npr.nornick.ru:8010/sap/opu/odata/SAP/ZHCM_PM_0650_SRV/ReportSet('ZHCM_PM_XXXX_REP_CONS')",
					"type": "ZHCM_PM_0650_SRV.Report",
					"content_type": "Консолидированный отчет",
					"media_src": "http://sms00990.npr.nornick.ru:8010/sap/opu/odata/SAP/ZHCM_PM_0650_SRV/ReportSet('ZHCM_PM_XXXX_REP_CONS')/$value"
				},
				"REPORTKEY": "ZHCM_PM_XXXX_REP_CONS",
				"REPORTNAME": "Консолидированный отчет",
				"REPORTDESCRIPTION": "Консолидированная информация по результатам проведения «Оценки 360»",
				"ID_EVAL_PROC": "",
				"FIO": ""
			}, {
				"__metadata": {
					"id": "http://sms00990.npr.nornick.ru:8010/sap/opu/odata/SAP/ZHCM_PM_0650_SRV/ReportSet('ZHCM_PM_0661_FINSTAT')",
					"uri": "http://sms00990.npr.nornick.ru:8010/sap/opu/odata/SAP/ZHCM_PM_0650_SRV/ReportSet('ZHCM_PM_0661_FINSTAT')",
					"type": "ZHCM_PM_0650_SRV.Report",
					"content_type": "Статус завершенности",
					"media_src": "http://sms00990.npr.nornick.ru:8010/sap/opu/odata/SAP/ZHCM_PM_0650_SRV/ReportSet('ZHCM_PM_0661_FINSTAT')/$value"
				},
				"REPORTKEY": "ZHCM_PM_0661_FINSTAT",
				"REPORTNAME": "Статус завершенности",
				"REPORTDESCRIPTION": "Сводная информация по результатам проведения «Оценки 360»",
				"ID_EVAL_PROC": "",
				"FIO": ""
			}, {
				"__metadata": {
					"id": "http://sms00990.npr.nornick.ru:8010/sap/opu/odata/SAP/ZHCM_PM_0650_SRV/ReportSet('ZHCM_PM_XXXX_REP_IND')",
					"uri": "http://sms00990.npr.nornick.ru:8010/sap/opu/odata/SAP/ZHCM_PM_0650_SRV/ReportSet('ZHCM_PM_XXXX_REP_IND')",
					"type": "ZHCM_PM_0650_SRV.Report",
					"content_type": "Индивидуальный отчет «Оценка 360»",
					"media_src": "http://sms00990.npr.nornick.ru:8010/sap/opu/odata/SAP/ZHCM_PM_0650_SRV/ReportSet('ZHCM_PM_XXXX_REP_IND')/$value"
				},
				"REPORTKEY": "ZHCM_PM_XXXX_REP_IND",
				"REPORTNAME": "Индивидуальный отчет",
				"REPORTDESCRIPTION": "Индивидуальная информация по результатам проведения «Оценки 360»",
				"ID_EVAL_PROC": "",
				"FIO": ""
			}
		]
	}
}